<?xml version="1.0" encoding="UTF-8" standalone="no"?>
<!-- Created with Inkscape (http://www.inkscape.org/) -->

<svg
   width="7.9375mm"
   height="7.9375mm"
   viewBox="0 0 7.9375 7.9375"
   version="1.1"
   id="svg5"
   inkscape:version="1.1.1 (3bf5ae0d25, 2021-09-20, custom)"
   sodipodi:docname="qddcswitch-icon.svg"
   inkscape:export-filename="/mnt/HDD/Kirjastot/OHJELMOINTI/qddcswitch/icons/qddcswitch-icon.png"
   inkscape:export-xdpi="1638.4"
   inkscape:export-ydpi="1638.4"
   xmlns:inkscape="http://www.inkscape.org/namespaces/inkscape"
   xmlns:sodipodi="http://sodipodi.sourceforge.net/DTD/sodipodi-0.dtd"
   xmlns:xlink="http://www.w3.org/1999/xlink"
   xmlns="http://www.w3.org/2000/svg"
   xmlns:svg="http://www.w3.org/2000/svg">
  <sodipodi:namedview
     id="namedview7"
     pagecolor="#ffffff"
     bordercolor="#666666"
     borderopacity="1.0"
     inkscape:pageshadow="2"
     inkscape:pageopacity="0.0"
     inkscape:pagecheckerboard="0"
     inkscape:document-units="mm"
     showgrid="true"
     inkscape:zoom="15.999999"
     inkscape:cx="6.4687504"
     inkscape:cy="13.031251"
     inkscape:current-layer="layer2"
     inkscape:snap-object-midpoints="false"
     inkscape:snap-text-baseline="false"
     inkscape:snap-bbox="false"
     inkscape:snap-bbox-edge-midpoints="false"
     inkscape:snap-bbox-midpoints="true"
     inkscape:bbox-nodes="true"
     inkscape:snap-nodes="true"
     fit-margin-top="0"
     fit-margin-left="0"
     fit-margin-right="0"
     fit-margin-bottom="0">
    <inkscape:grid
       type="xygrid"
       id="grid824"
       originx="-1.3229166"
       originy="-1.3229166" />
  </sodipodi:namedview>
  <defs
     id="defs2">
    <linearGradient
       inkscape:collect="always"
       id="linearGradient26280">
      <stop
         style="stop-color:#000000;stop-opacity:1"
         offset="0"
         id="stop26276" />
      <stop
         style="stop-color:#868686;stop-opacity:0"
         offset="1"
         id="stop26278" />
    </linearGradient>
    <linearGradient
       inkscape:collect="always"
       id="linearGradient26274">
      <stop
         style="stop-color:#000000;stop-opacity:1"
         offset="0"
         id="stop26270" />
      <stop
         style="stop-color:#868686;stop-opacity:0"
         offset="1"
         id="stop26272" />
    </linearGradient>
    <linearGradient
       inkscape:collect="always"
       id="linearGradient25656">
      <stop
         style="stop-color:#2e2e2e;stop-opacity:1"
         offset="0"
         id="stop25652" />
      <stop
         style="stop-color:#868686;stop-opacity:0"
         offset="1"
         id="stop25654" />
    </linearGradient>
    <linearGradient
       inkscape:collect="always"
       id="linearGradient23693">
      <stop
         style="stop-color:#2e2e2e;stop-opacity:1"
         offset="0"
         id="stop25137" />
      <stop
         style="stop-color:#868686;stop-opacity:0"
         offset="1"
         id="stop25139" />
    </linearGradient>
    <linearGradient
       inkscape:collect="always"
       xlink:href="#linearGradient23693"
       id="linearGradient23695"
       x1="5.5562501"
       y1="5.0270834"
       x2="6.6145835"
       y2="5.0270834"
       gradientUnits="userSpaceOnUse"
       gradientTransform="matrix(0.49999994,0,0,1,3.0427088,0.26458349)" />
    <linearGradient
       inkscape:collect="always"
       xlink:href="#linearGradient25656"
       id="linearGradient25254"
       gradientUnits="userSpaceOnUse"
       gradientTransform="matrix(0.49999994,0,0,1,-7.5406245,0.26458349)"
       x1="5.5562501"
       y1="5.0270834"
       x2="6.6145835"
       y2="5.0270834" />
    <linearGradient
       inkscape:collect="always"
       xlink:href="#linearGradient26274"
       id="linearGradient26044"
       gradientUnits="userSpaceOnUse"
       gradientTransform="matrix(0.33333329,0,0,0.5,-6.7909723,2.6458334)"
       x1="5.5562501"
       y1="5.0270834"
       x2="6.6145835"
       y2="5.0270834" />
    <linearGradient
       inkscape:collect="always"
       xlink:href="#linearGradient26280"
       id="linearGradient26046"
       gradientUnits="userSpaceOnUse"
       gradientTransform="matrix(0.33333348,0,0,0.5,3.792361,2.6458334)"
       x1="5.5562501"
       y1="5.0270834"
       x2="6.6145835"
       y2="5.0270834" />
  </defs>
  <g
     inkscape:groupmode="layer"
     id="layer2"
     inkscape:label="Layer 2"
     transform="translate(-1.3229166,-1.3229166)">
    <rect
       style="fill:#ffffff;fill-opacity:0;stroke-width:0.283001;paint-order:markers fill stroke"
       id="rect874"
       width="7.9375"
       height="7.9375"
       x="1.3229166"
       y="1.3229166" />
    <rect
       style="fill:#ff8600;fill-opacity:1;stroke:none;stroke-width:0.4;stroke-linecap:square;stroke-linejoin:round;stroke-miterlimit:4;stroke-dasharray:none;stroke-opacity:1;paint-order:normal"
       id="rect30087"
       width="7.4083338"
       height="4.7624998"
       x="1.5874999"
       y="1.8520836"
       rx="0.26458311"
       ry="0.26458311" />
    <path
       id="rect41339"
       style="fill:#000000;fill-opacity:1;stroke-width:0.283"
       d="m 6.6145833,1.8520833 2.3812501,3e-7 v 4.7624998 l -4.2333334,-1e-7 z"
       sodipodi:nodetypes="ccccc" />
    <rect
       style="fill:#4f4f4f;fill-opacity:1;stroke:none;stroke-width:0.715542;stroke-linecap:square;stroke-miterlimit:4;stroke-dasharray:none;stroke-opacity:1;paint-order:markers fill stroke"
       id="rect22605"
       width="3.1749997"
       height="1.0583336"
       x="3.7041669"
       y="5.5562501" />
    <path
       style="fill:#bababa;fill-opacity:1;stroke:#c5c5c5;stroke-width:0.1;stroke-linecap:butt;stroke-linejoin:miter;stroke-miterlimit:4;stroke-dasharray:none;stroke-opacity:1"
       d="M 5.0458629,5.1860323 5.6431956,3.1382344 c 0,0 0.210045,-0.4856937 0.6957388,-0.2756488 0.4856938,0.210045 0.2756489,0.6957387 0.2756489,0.6957387 L 5.5315566,5.3960772 Z"
       id="path27433"
       sodipodi:nodetypes="cccccc"
       inkscape:transform-center-y="-1.1812337"
       inkscape:transform-center-x="-0.56114647" />
    <rect
       style="fill:url(#linearGradient23695);fill-opacity:1;stroke:none;stroke-width:0.309839;stroke-linecap:square;stroke-miterlimit:4;stroke-dasharray:none;stroke-opacity:1;paint-order:markers fill stroke"
       id="rect23519"
       width="0.79374975"
       height="0.26458332"
       x="5.2916665"
       y="5.291667" />
    <rect
       style="fill:url(#linearGradient25254);fill-opacity:1;stroke:none;stroke-width:0.309839;stroke-linecap:square;stroke-miterlimit:4;stroke-dasharray:none;stroke-opacity:1;paint-order:markers fill stroke"
       id="rect25252"
       width="0.79374975"
       height="0.26458332"
       x="-5.2916665"
       y="5.291667"
       transform="scale(-1,1)" />
    <rect
       style="fill:url(#linearGradient26046);fill-opacity:1;stroke:none;stroke-width:0.178885;stroke-linecap:square;stroke-miterlimit:4;stroke-dasharray:none;stroke-opacity:1;paint-order:markers fill stroke"
       id="rect26040"
       width="0.52916676"
       height="0.13229166"
       x="5.2916665"
       y="5.1593752" />
    <rect
       style="fill:url(#linearGradient26044);fill-opacity:1;stroke:none;stroke-width:0.178885;stroke-linecap:square;stroke-miterlimit:4;stroke-dasharray:none;stroke-opacity:1;paint-order:markers fill stroke"
       id="rect26042"
       width="0.52916646"
       height="0.13229166"
       x="-5.2916665"
       y="5.1593752"
       transform="scale(-1,1)" />
    <text
       xml:space="preserve"
       style="font-size:1.76389px;line-height:1.25;font-family:monospace;-inkscape-font-specification:monospace;letter-spacing:0px;word-spacing:0px;stroke-width:0.264583"
       x="1.8565609"
       y="3.5524967"
       id="text34066"><tspan
         sodipodi:role="line"
         id="tspan34064"
         style="font-size:1.76389px;stroke-width:0.264583"
         x="1.8565609"
         y="3.5524967">DDC</tspan></text>
  </g>
  <g
     inkscape:label="Layer 1"
     inkscape:groupmode="layer"
     id="layer1"
     sodipodi:insensitive="true"
     transform="translate(-1.3229166,-1.3229166)">
    <rect
       style="fill:#848484;fill-opacity:1;stroke:none;stroke-width:0.158113;stroke-linecap:square;stroke-miterlimit:4;stroke-dasharray:none;stroke-opacity:1;paint-order:markers fill stroke"
       id="rect4890"
       width="2.6458333"
       height="1.3229166"
       x="3.96875"
       y="6.6145835" />
    <rect
       style="fill:none;fill-opacity:1;stroke:#424242;stroke-width:0.4;stroke-linecap:square;stroke-linejoin:round;stroke-miterlimit:4;stroke-dasharray:none;stroke-opacity:1;paint-order:normal"
       id="rect4654"
       width="7.4083338"
       height="4.7624998"
       x="1.5874999"
       y="1.8520836"
       rx="0.26458311"
       ry="0.26458311" />
    <path
       id="rect5200"
       style="fill:#424242;fill-opacity:1;stroke-width:0.144337;stroke-linecap:square;paint-order:markers fill stroke"
       d="M 3.175,7.4083333 H 7.4083333 C 7.9375,7.4083333 7.9375,7.9375 7.9375,7.9375 V 8.73125 H 2.6458333 V 7.9375 c 0,0 0,-0.5291667 0.5291667,-0.5291667 z"
       sodipodi:nodetypes="ccccccc" />
  </g>
</svg>
